\relax 
\@writefile{toc}{\contentsline {section}{\numberline {1}Basic Use Cases}{1}}
\@writefile{toc}{\contentsline {section}{\numberline {2}Execution Plan}{3}}
\@writefile{toc}{\contentsline {subsubsection}{\numberline {2.0.1}Phase 1}{3}}
\@writefile{toc}{\contentsline {subsubsection}{\numberline {2.0.2}Phase 2}{3}}
\@writefile{toc}{\contentsline {section}{\numberline {3}Challenges and Concerns}{3}}
